<svg id="Layer_1" data-name="Layer 1" xmlns="http://www.w3.org/2000/svg" width="328" height="87.488" viewBox="0 0 328 87.488">
  <defs>
    <style>
      .cls-1 {
        fill: #1b3845;
      }

      .cls-2 {
        fill: #bbddc7;
      }

      .cls-3 {
        fill: #70c1ae;
      }

      .cls-4 {
        fill: #2aa89f;
      }

      .cls-5 {
        fill: #18498b;
      }
    </style>
  </defs>
  <title>logo</title>
  <g>
    <g>
      <g>
        <path class="cls-1" d="M111.918,71.5c0-1.8,0-3.615-.041-5.22h3.478c.1.611.153,2.789.139,3.4.827-1.779,2.517-3.9,6.523-3.9,3.881,0,6.921,2.377,6.921,7.883V87h-3.576V74.132c0-3.129-1.224-5.24-4.388-5.24-3.905,0-5.48,2.975-5.48,7.14V87h-3.576Z"/>
        <path class="cls-1" d="M137.17,77.29c.026,4.215,2.145,7.207,5.663,7.207,3.275,0,4.337-1.688,5-3.2h3.6c-.813,2.654-3.037,6.195-8.714,6.195-6.513,0-9.169-5.294-9.169-10.626,0-6.16,3.1-11.071,9.4-11.071,6.681,0,8.87,5.363,8.87,9.78,0,.631,0,1.158-.054,1.719ZM148.2,74.769c-.04-3.408-1.756-6.145-5.295-6.145-3.644,0-5.246,2.536-5.608,6.145Z"/>
        <path class="cls-1" d="M173.016,80.962c0,2.015.027,4.81.042,6.036h-3.48c-.081-.545-.122-1.808-.138-3.105-1.016,2.294-3.013,3.595-6.273,3.595-3.491,0-6.843-1.738-6.843-7.582V66.282h3.548V79.141c0,2.721.852,5.231,4.291,5.231,3.808,0,5.277-2.111,5.277-7.287v-10.8h3.576Z"/>
        <path class="cls-1" d="M179.148,71.91c0-2.9-.028-4.525-.041-5.628h3.506c.055.582.109,2.207.109,4.228a7.331,7.331,0,0,1,6.98-4.719v3.568c-4.25.126-6.98,2.344-6.98,7.582V87h-3.574Z"/>
        <path class="cls-1" d="M211.005,76.6c0,5.969-3.419,10.89-9.754,10.89-5.934,0-9.525-4.592-9.525-10.82,0-6.116,3.517-10.877,9.758-10.877C207.237,65.791,211.005,70.1,211.005,76.6Zm-15.594.042c0,4.542,2.266,7.857,5.99,7.857,3.79,0,5.921-3.143,5.921-7.842,0-4.662-2.12-7.872-6-7.872S195.411,71.912,195.411,76.64Z"/>
      </g>
      <path class="cls-1" d="M251.084,16.829a12,12,0,0,0-7.623,2.759.524.524,0,0,1-.853-.408V17.716h-7.951V50.241h4.775a3.176,3.176,0,0,0,3.176-3.175V34.557c0-3.913.5-6.681,1.47-8.226s2.656-2.307,5-2.307c2.154,0,3.651.581,4.452,1.73.839,1.152,1.264,3.3,1.264,6.375V50.241h4.775a3.176,3.176,0,0,0,3.176-3.175v-16.7c0-4.557-.93-7.9-2.761-9.932C257.863,18.042,254.867,16.829,251.084,16.829Z"/>
      <path class="cls-1" d="M173.834,35.941h19.352a1.986,1.986,0,0,0,1.986-1.948c0-5.172-1.355-9.28-4.027-12.211-2.7-2.958-6.416-4.458-11.046-4.458a14.4,14.4,0,0,0-11.112,4.587c-2.755,3.079-4.152,7.154-4.152,12.114,0,5,1.441,9.081,4.284,12.118a14.948,14.948,0,0,0,11.363,4.551,19.175,19.175,0,0,0,4.564-.518,13.791,13.791,0,0,0,3.937-1.643,15.043,15.043,0,0,0,3.407-2.855,26.075,26.075,0,0,0,2.23-3.13,1.4,1.4,0,0,0-1.179-2.145h-2.889l-3.271-.016a.986.986,0,0,0-.837.45,6.6,6.6,0,0,1-3.539,2.662l.006,0a8.745,8.745,0,0,1-2.173.261,7.379,7.379,0,0,1-5.469-2.158,8.7,8.7,0,0,1-2.263-4.673A.844.844,0,0,1,173.834,35.941ZM173.4,29.7a7.573,7.573,0,0,1,.913-2.148,8.258,8.258,0,0,1,3.068-2.65,6.911,6.911,0,0,1,5.733-.131,5.84,5.84,0,0,1,2.915,2.271,7.8,7.8,0,0,1,1.33,2.653.448.448,0,0,1-.435.565H173.833A.449.449,0,0,1,173.4,29.7Z"/>
      <path class="cls-1" d="M278.2,35.941h19.352a1.986,1.986,0,0,0,1.985-1.948c0-5.172-1.355-9.28-4.027-12.211-2.7-2.958-6.416-4.458-11.046-4.458a14.4,14.4,0,0,0-11.112,4.587C270.6,24.99,269.2,29.065,269.2,34.025c0,5,1.441,9.081,4.285,12.118a14.946,14.946,0,0,0,11.362,4.551,19.169,19.169,0,0,0,4.564-.518,13.779,13.779,0,0,0,3.937-1.643,15.043,15.043,0,0,0,3.407-2.855,25.963,25.963,0,0,0,2.23-3.13A1.4,1.4,0,0,0,297.81,40.4h-2.889l-3.271-.016a.987.987,0,0,0-.837.45,6.6,6.6,0,0,1-3.539,2.662l.006,0a8.739,8.739,0,0,1-2.173.261,7.38,7.38,0,0,1-5.469-2.158,8.7,8.7,0,0,1-2.262-4.673A.844.844,0,0,1,278.2,35.941Zm-.437-6.241a7.573,7.573,0,0,1,.913-2.148,8.267,8.267,0,0,1,3.069-2.65,6.909,6.909,0,0,1,5.732-.131,5.84,5.84,0,0,1,2.915,2.271,7.8,7.8,0,0,1,1.33,2.653.448.448,0,0,1-.434.565H278.2A.449.449,0,0,1,277.767,29.7Z"/>
      <path class="cls-1" d="M110.507.324V50.385h6.172a2.049,2.049,0,0,0,2.049-2.049V3.285a2.961,2.961,0,0,0-2.96-2.961Z"/>
      <path class="cls-1" d="M127.233,50.385h6.172a2.049,2.049,0,0,0,2.049-2.049V20.56a2.961,2.961,0,0,0-2.961-2.96h-5.26Z"/>
      <path class="cls-1" d="M156.46,0c-3.787,0-6.72,1.22-8.718,3.626-1.458,1.732-2.2,5.815-2.2,9.921V17.6H141.3v5a2.742,2.742,0,0,0,2.624,2.729h1.621V50.385h6.2a2.051,2.051,0,0,0,2.049-2.049V25.329h8.035v-4.66a3.073,3.073,0,0,0-3.069-3.069H153.8v-.566c0-2.546.217-7.077.646-7.934a2.266,2.266,0,0,1,2.279-1.174,8.915,8.915,0,0,1,3.74,1.165.936.936,0,0,0,1.37-.83V1.28l-.269-.1A14.921,14.921,0,0,0,156.46,0Z"/>
      <path class="cls-1" d="M201.169.324V50.385h6.172a2.049,2.049,0,0,0,2.049-2.049V3.285A2.961,2.961,0,0,0,206.43.324Z"/>
      <path class="cls-1" d="M217.624,50.385H223.8a2.049,2.049,0,0,0,2.049-2.049V20.56a2.96,2.96,0,0,0-2.96-2.96h-5.261Z"/>
      <path class="cls-1" d="M325.851,34.161h0c-1.388-1.455-4.094-3.054-8.044-4.754-2.659-1.124-4.007-2.219-4.007-3.253a1.825,1.825,0,0,1,.588-1.413,2.033,2.033,0,0,1,1.451-.56c.567,0,1.466.7,2.533,1.966a1.786,1.786,0,0,0,2.193.429l5.5-2.928-.171-.363c-2.056-4.36-5.252-6.57-9.5-6.57a10.466,10.466,0,0,0-7.375,2.838,9.559,9.559,0,0,0-2.983,7.192,8.191,8.191,0,0,0,1.77,5.418,14.305,14.305,0,0,0,4.665,3.257q1.151.559,2.267,1.085c.728.343,1.47.7,2.2,1.064,1.778,1.051,2.679,2.165,2.679,3.311,0,2.039-1.054,2.99-3.318,2.99a4.179,4.179,0,0,1-2.931-1.138,14.566,14.566,0,0,1-1.323-1.885,1.715,1.715,0,0,0-2.161-.629l-5.643,2.616.16.375c2.292,5.371,6.251,8.094,11.767,8.094a12.073,12.073,0,0,0,8.286-3.061A10.507,10.507,0,0,0,328,40.191,8.414,8.414,0,0,0,325.851,34.161Z"/>
    </g>
    <g>
      <g>
        <path class="cls-2" d="M47.957,71.77C35.574,75.4,24.68,81.918,14.723,86.832H47.957Z"/>
        <path class="cls-3" d="M47.957,58.2H28.637V48.6q-1.263.507-2.51,1.056-2.1.927-4.151,1.963t-4.07,2.151q-1.344.744-2.672,1.518t-2.645,1.568q-.657.4-1.313.8-1.71,1.051-3.4,2.124-.9.568-1.794,1.14-1.29.824-2.572,1.647Q1.749,63.7,0,64.814V86.832H14.751C24.776,81.9,35.474,75.464,47.957,71.805Z"/>
        <path class="cls-4" d="M6.08,60.918q.894-.572,1.794-1.14,1.692-1.071,3.4-2.124.656-.4,1.313-.8,1.315-.8,2.645-1.568t2.672-1.518q2.016-1.115,4.07-2.151t4.151-1.963q1.247-.551,2.51-1.056V12.492C18.462,20.071,9.145,31.743,0,42.558V64.814Q1.749,63.7,3.508,62.565,4.791,61.742,6.08,60.918Z"/>
        <path class="cls-5" d="M28.637,12.492V.148H0v42.41C9.145,31.743,18.462,20.071,28.637,12.492Z"/>
      </g>
      <g>
        <path class="cls-2" d="M86.594,70.889a98.194,98.194,0,0,0-19.385-2.056,64.577,64.577,0,0,0-9.252.674V86.832H86.594Z"/>
        <path class="cls-3" d="M86.594,70.936V55.363l-.578-.32a109.348,109.348,0,0,0-14.861-6.975,69.1,69.1,0,0,0-7.175-2.224,59.753,59.753,0,0,0-6.023-1.179v24.89a64.577,64.577,0,0,1,9.252-.674A98.268,98.268,0,0,1,86.594,70.936Z"/>
        <path class="cls-4" d="M71.155,48.12a109.223,109.223,0,0,1,14.861,6.974c.193.106.385.214.578.321V23.976C75.515,13.2,63.845,4.263,50.122,4.263A29.651,29.651,0,0,0,39.045,6.492V28.871H57.957V44.716A59.477,59.477,0,0,1,63.98,45.9,68.863,68.863,0,0,1,71.155,48.12Z"/>
        <path class="cls-5" d="M86.594,23.976V.148H39.045V6.492A29.651,29.651,0,0,1,50.122,4.263C63.845,4.263,75.515,13.2,86.594,23.976Z"/>
      </g>
    </g>
  </g>
</svg>
