Endpoint,URL,super admin,support,production,facility admin,review doctor,lead tech,field tech,office personnel
RotateToken,/api/Facilities/RotateToken,YES,NO,NO,NO,NO,NO,NO,NO
Metrics,/api/Facilities/Metrics,YES,YES,YES,YES,YES,YES,YES,YES
GetFacilities,/api/Facilities/GetFacilities,YES,YES,YES,YES,YES,YES,YES,YES
Delete,/api/Facilities/,YES,NO,NO,NO,NO,NO,NO,NO
Get?id=,/api/Facilities/,YES,YES,NO,YES,NO,NO,NO,NO
Patch,/api/Facilities/,YES,NO,NO,NO,NO,NO,NO,NO
Post,/api/Facilities/CreateFacility,YES,NO,NO,NO,NO,NO,NO,NO
Put,/api/Facilities/,YES,NO,NO,YES,NO,NO,NO,NO
SendInvitation,/api/Facilities/SendInvitation,YES,YES,NO,YES,NO,NO,NO,NO
AcceptInvitation,/api/Facilities/AcceptInvitation,UNRESTRICTED,UNRESTRICTED,UNRESTRICTED,UNRESTRICTED,UNRESTRICTED,UNRESTRICTED,UNRESTRICTED,UNRESTRICTED
GetInvitation,/api/Facilities/GetInvitation,YES,YES,YES,YES,YES,YES,YES,YES
GetInvitations,/api/Facilities/GetInvitations,YES,YES,NO,YES,NO,NO,NO,NO
DoesInvitedUserExist,/api/Facilities/DoesInvitedUserExist,UNRESTRICTED,UNRESTRICTED,UNRESTRICTED,UNRESTRICTED,UNRESTRICTED,UNRESTRICTED,UNRESTRICTED,UNRESTRICTED
IsInvitationExpired,/api/Facilities/IsInvitationExpired,UNRESTRICTED,UNRESTRICTED,UNRESTRICTED,UNRESTRICTED,UNRESTRICTED,UNRESTRICTED,UNRESTRICTED,UNRESTRICTED
RetrieveToken,/api/Facilities/RetrieveToken,YES,YES,YES,YES,YES,YES,YES,YES
GetSupportedNetworkCameras,/api/Facilities/GetSupportedNetworkCameras,YES,YES,YES,NO,NO,NO,NO,NO
GetFacilityNetworkCameras,/api/Facilities/GetFacilityNetworkCameras,YES,YES,YES,YES,NO,NO,NO,NO
AddFacilityNetworkCamera,/api/Facilities/AddFacilityNetworkCamera,YES,YES,YES,NO,NO,NO,NO,NO
RemoveFacilityNetworkCamera,/api/Facilities/RemoveFacilityNetworkCamera,YES,YES,YES,NO,NO,NO,NO,NO
