Endpoint,URL,super admin,support,production,facility admin,review doctor,lead tech,field tech,office personnel
GetUsers,/api/FacilityUsers/GetUsers,YES,YES,NO,YES,NO,NO,NO,NO
GetUser,/api/FacilityUsers/GetUser,YES,YES,NO,YES,NO,NO,NO,NO
CreateFacilityUser,/api/FacilityUsers/CreateFacilityUser,YES,YES,NO,YES,NO,NO,NO,NO
Delete,/api/FacilityUsers/,YES,YES,NO,YES,NO,NO,NO,NO
Get?id=,/api/FacilityUsers/,YES,NO,NO,NO,NO,NO,NO,NO
Get,/api/FacilityUsers,YES,NO,NO,NO,NO,NO,NO,NO
Patch,/api/FacilityUsers/,YES,NO,NO,NO,NO,NO,NO,NO
Post,/api/FacilityUsers,YES,NO,NO,NO,NO,NO,NO,NO
Put,/api/FacilityUsers/,YES,NO,NO,NO,NO,NO,NO,NO
