Endpoint,URL,super admin,support,production,facility admin,review doctor,lead tech,field tech,office personnel
ShareStudy,/api/Notifications/ShareStudy,YES,YES,NO,YES,YES,YES,YES,NO
ShareStudyEvent,/api/Notifications/ShareStudyEvent,YES,YES,NO,YES,YES,YES,YES,NO
NotifyStudySubmitted,/api/Notifications/NotifyStudySubmitted,YES,YES,NO,YES,YES,YES,YES,NO
GetShareableUsersAndGroups,/api/Notifications/GetShareableUsersAndGroups,YES,YES,NO,YES,YES,YES,YES,NO
GetSubmittableUsersAndGroups,/api/Notifications/GetSubmittableUsersAndGroups,YES,YES,NO,YES,YES,YES,YES,NO
