Endpoint,URL,super admin,support,production,facility admin,review doctor,lead tech,field tech,office personnel
AddStudyEvent,/api/StudyEvents/AddStudyEvent,Yes,Yes,NO,Yes,Yes,Yes,Yes,NO
GetStudyEventsById,/api/StudyEvents/GetStudyEventsByStudyID,Yes,Yes,NO,Yes,Yes,Yes,Yes,NO
Delete,/api/StudyEvents/,Yes,Yes,NO,Yes,Yes,Yes,Yes,NO
Get?id=,/api/StudyEvents/,Yes,NO,NO,NO,NO,NO,NO,NO
Get,/api/StudyEvents,Yes,NO,NO,NO,NO,NO,NO,NO
Patch,/api/StudyEvents/,Yes,NO,NO,NO,NO,NO,NO,NO
Post,/api/StudyEvents,Yes,NO,NO,NO,NO,NO,NO,NO
Put,/api/StudyEvents/,Yes,Yes,NO,Yes,Yes,Yes,Yes,Yes
SetImportant,/api/StudyEvents/SetImportant,Yes,Yes,NO,Yes,Yes,Yes,Yes,NO
